1 1 1
1 2 2
10 100 119
51 100 119
750000 999999 525
500000 999999 525
2000 3000 217
3000 4000 238
3001 4999 238
2500 17500 276
50 50 25
999999 999999 259
999998 999999 259
1 999999 525
7001 8999 252
1 999999 525
1 999999 525
1 999999 525
1 999999 525
1 999999 525
1 999999 525
1 999999 525
1 999999 525
1 999999 525
1 999999 525
1 999999 525
1 999999 525
50001 99999 351
400000 500000 449
2345 65432 340
891753 987324 507
13463 234623 443
47389 674893 509
866 799 148
2354 75436 340
76534 765433 509
2435 753456 509
6345 897453 525
5234 80909 351
6225 98254 351
3452 342345 443
7623 948752 525
87245 892958 525
60000 70000 335
49999 59999 340
123456 654321 509
50000 100000 351
50 100 119
60 120 119
500 1000 179
7500 15000 276
4950 9900 262
50 100 119
60 120 119
500 1000 179
7500 15000 276
4950 9900 262
75036 345890 443
4358 92458 351
431 2345 183
5243 231515 443
23462 72346 340
754652 795635 468
459999 999998 525
50 99 119
49 99 119
499 999 179
1749 3499 217
3499 6999 262
50 99 119
49 99 119
499 999 179
1749 3499 217
3499 6999 262
50 99 119
49 99 119
499 999 179
1749 3499 217
3499 6999 262
555555 666666 509
666666 777777 504
777777 888888 525
888888 999999 507
111111 222222 386
111111 111112 116
222222 333333 443
11 21 21
90 179 125
123456 234567 443
5489 9845 262
666666 999999 525
787878 878787 525
876543 987654 507
134627 756423 509
234592 346564 441
2534 67542 340
2346 67435 340
542 754362 509
3564 7456 262
3654 8456 262
26345 86454 351
